{"count":202656,"next":"https://ed-data-portal.urban.org/api/v1/college-university/ipeds/grad-rates/2002/?page=2","previous":null,"results":[{"unitid":100654,"year":2002,"cohort_year":1997,"institution_level":4,"subcohort":2,"race":1,"sex":1,"ftpt":1,"class_level":1,"cohort_rev":13.0,"exclusions":null,"cohort_adj_150pct":13.0,"completers_150pct":1.0,"transfers_out":null,"still_enrolled_long_program":null,"completers_100pct":null,"completion_rate_150pct":0.0769231,"still_enrolled":null,"no_longer_enrolled":null},{"unitid":100654,"year":2002,"cohort_year":1997,"institution_level":4,"subcohort":99,"race":1,"sex":1,"ftpt":1,"class_level":1,"cohort_rev":null,"exclusions":null,"cohort_adj_150pct":13.0,"completers_150pct":1.0,"transfers_out":null,"still_enrolled_long_program":null,"completers_100pct":null,"completion_rate_150pct":0.0769231,"still_enrolled":null,"no_longer_enrolled":null}]}